[
  {
    "id": 9,
    "name": "Schody",
    "sectionID": 1,
    "icon": "room_schody",
    "defaultSensors": {
      "temperature": 0,
      "humidity": 0,
      "light": 0
    },
    "defaultThermostat": 0,
    "sortOrder": 1
  },
  {
    "id": 78,
    "name": "zzzz",
    "sectionID": 49,
    "icon": "",
    "defaultSensors": {
      "temperature": 0,
      "humidity": 0,
      "light": 0
    },
    "defaultThermostat": 0,
    "sortOrder": 2
  },
  {
    "id": 88,
    "name": "pomieszczenie1",
    "sectionID": 54,
    "icon": "",
    "defaultSensors": {
      "temperature": 0,
      "humidity": 0,
      "light": 0
    },
    "defaultThermostat": 0,
    "sortOrder": 3
  },
  {
    "id": 93,
    "name": "pomieszczenie1",
    "sectionID": 56,
    "icon": "",
    "defaultSensors": {
      "temperature": 0,
      "humidity": 0,
      "light": 0
    },
    "defaultThermostat": 0,
    "sortOrder": 4
  },
  {
    "id": 220,
    "name": "Pokój gier",
    "sectionID": 129,
    "icon": "",
    "defaultSensors": {
      "temperature": 0,
      "humidity": 0,
      "light": 0
    },
    "defaultThermostat": 0,
    "sortOrder": 5
  },
  {
    "id": 317,
    "name": "WindowsPhone",
    "sectionID": 331,
    "icon": "",
    "defaultSensors": {
      "temperature": 0,
      "humidity": 0,
      "light": 0
    },
    "defaultThermostat": 0,
    "sortOrder": 8
  },
  {
    "id": 318,
    "name": "Kominek",
    "sectionID": 332,
    "icon": "",
    "defaultSensors": {
      "temperature": 0,
      "humidity": 15,
      "light": 0
    },
    "defaultThermostat": 0,
    "sortOrder": 7
  },
  {
    "id": 319,
    "name": "Strych",
    "sectionID": 331,
    "icon": "room_child",
    "defaultSensors": {
      "temperature": 0,
      "humidity": 0,
      "light": 0
    },
    "defaultThermostat": 0,
    "sortOrder": 6
  },
  {
    "id": 320,
    "name": "Pinball",
    "sectionID": 333,
    "icon": "",
    "defaultSensors": {
      "temperature": 0,
      "humidity": 0,
      "light": 0
    },
    "defaultThermostat": 0,
    "sortOrder": 9
  }
]